<svg viewBox="0 0 17 14" version="1.1" xmlns="http://www.w3.org/2000/svg" xmlns:xlink="http://www.w3.org/1999/xlink">
    <g id="Symbols" stroke="none" stroke-width="1" fill="none" fill-rule="evenodd">
        <g id="people" transform="translate(-10.000000, -18.000000)" fill="#A8A0A0" fill-rule="nonzero">
            <g id="persons">
                <path d="M22.9376233,25.7710485 L22.9376233,25.8998829 C21.3159678,25.8998829 19.9958429,24.5782011 19.9958429,22.9511528 C19.9958429,21.3244976 21.3161685,20.0024228 22.9376233,20.0024228 C24.559078,20.0024228 25.8794036,21.3244976 25.8794036,22.9511528 C25.8794036,24.5782011 24.5592787,25.8998829 22.9376233,25.8998829 L22.9376233,25.7710485 Z M22.9376233,21.1162122 L22.9376233,20.9936854 C21.8618574,20.9936854 20.9856448,21.8710589 20.9856448,22.9511528 C20.9856448,24.0316224 21.8616682,24.9086202 22.9376233,24.9086202 C24.0135783,24.9086202 24.8896018,24.0316224 24.8896018,22.9511528 C24.8896018,21.8710589 24.0133892,20.9936854 22.9376233,20.9936854 L22.9376233,21.1162122 Z M15.0154261,24.8461324 C13.1325127,24.8461324 11.5999372,23.3115264 11.5999372,21.4230662 C11.5999372,19.534606 13.1325127,18 15.0154261,18 C16.8983396,18 18.430915,19.534606 18.430915,21.4230662 C18.430915,23.3115264 16.8983396,24.8461324 15.0154261,24.8461324 Z M15.0154261,19.0193277 L15.0154261,19.1481621 C13.7602429,19.1481621 12.7404839,20.1692721 12.7404839,21.4230662 C12.7404839,22.6764766 13.7604522,23.6979703 15.0154261,23.6979703 C16.2700165,23.6979703 17.2903684,22.6762666 17.2903684,21.4230662 C17.2903684,20.1694821 16.2702258,19.1481621 15.0154261,19.1481621 L15.0154261,19.0193277 Z M19.4634247,31.984921 C19.1492632,31.984921 18.8931514,31.7284699 18.8931514,31.4108399 C18.8931514,27.9226671 18.1120946,26.6271191 15.016849,26.6271191 C11.9216034,26.6271191 11.1405467,27.9226671 11.1405467,31.4108399 C11.1405467,31.7286478 10.8848482,31.984921 10.5702733,31.984921 C10.2561118,31.984921 10,31.7284699 10,31.4108399 C10,27.3593661 11.1261698,25.4789571 15.016849,25.4789571 C18.9079298,25.4789571 20.0336981,27.3589073 20.0336981,31.4108399 C20.0336981,31.7286478 19.7779996,31.984921 19.4634247,31.984921 Z M26.4297267,32 C26.1153854,32 25.8594533,31.7439648 25.8594533,31.425919 C25.8594533,28.733264 25.2251902,27.6811071 22.7894634,27.6811071 C22.1986442,27.6811071 21.6939258,27.7568135 21.2883754,27.9051586 C20.9933859,28.0129838 20.6664629,27.8607033 20.5581974,27.5629603 C20.4492852,27.264207 20.6030212,26.9342684 20.8993014,26.8259714 C21.4321009,26.6312481 22.0681642,26.532945 22.7894634,26.532945 C25.1903251,26.532945 26.4222595,27.596911 26.8334333,29.4199173 C26.9696455,30.0238364 27,30.5258209 27,31.425919 C27,31.7439648 26.7440679,32 26.4297267,32 Z" id="icon-person"></path>
            </g>
        </g>
    </g>
</svg>