<?xml version="1.0" encoding="utf-8"?>
<!-- Generator: Adobe Illustrator 21.0.0, SVG Export Plug-In . SVG Version: 6.00 Build 0)  -->
<svg version="1.1" id="Calque_1" xmlns="http://www.w3.org/2000/svg" xmlns:xlink="http://www.w3.org/1999/xlink" x="0px" y="0px"
	 viewBox="0 0 22 32" style="enable-background:new 0 0 22 32;" xml:space="preserve">
<style type="text/css">
	.st0{filter:url(#filter-2);}
	.st1{fill:#FFFFFF;}
</style>
<filter  filterUnits="objectBoundingBox" height="158.3%" id="filter-2" width="198.5%" x="-49.2%" y="-20.8%">
	<feOffset  dx="0" dy="2" in="SourceAlpha" result="shadowOffsetOuter1"></feOffset>
	<feGaussianBlur  in="shadowOffsetOuter1" result="shadowBlurOuter1" stdDeviation="2"></feGaussianBlur>
	<feColorMatrix  in="shadowBlurOuter1" type="matrix" values="0 0 0 0 0   0 0 0 0 0   0 0 0 0 0  0 0 0 0.670204937 0">
		</feColorMatrix>
</filter>
<g id="_x31_" transform="translate(130.000000, 775.000000)">
	<g id="Resort">
		<g id="ResortThumbnail_x2F_main-Copy-4">
			<g id="Group" transform="translate(7.000000, 125.000000)">
				<g id="action_x2F_Arrow" transform="translate(7.455556, 11.769231) scale(-1, 1) translate(-7.455556, -11.769231) ">
					<g id="Fill-1">
						<g class="st0">
							<path id="path-1_2_" d="M134.5-874.5c-0.6-0.6-0.6-1.6,0-2.2l9.3-9.3l-9.3-9.3c-0.6-0.6-0.6-1.6,0-2.2c0.6-0.6,1.6-0.6,2.2,0
								l11.5,11.5l-11.5,11.5c-0.3,0.3-0.7,0.5-1.1,0.5C135.2-874,134.8-874.2,134.5-874.5z"/>
						</g>
						<g>
							<path id="path-1_1_" class="st1" d="M134.5-874.5c-0.6-0.6-0.6-1.6,0-2.2l9.3-9.3l-9.3-9.3c-0.6-0.6-0.6-1.6,0-2.2
								c0.6-0.6,1.6-0.6,2.2,0l11.5,11.5l-11.5,11.5c-0.3,0.3-0.7,0.5-1.1,0.5C135.2-874,134.8-874.2,134.5-874.5z"/>
						</g>
					</g>
				</g>
			</g>
		</g>
	</g>
</g>
</svg>
